{
  "relationships": [],
  "fields": [
    {
      "fieldId": 1,
      "fieldName": "uid",
      "fieldType": "String"
    },
    {
      "fieldId": 2,
      "fieldName": "email",
      "fieldType": "String"
    },
    {
      "fieldId": 3,
      "fieldName": "username",
      "fieldType": "String"
    },
    {
      "fieldId": 4,
      "fieldName": "createdAt",
      "fieldType": "ZonedDateTime"
    },
    {
      "fieldId": 5,
      "fieldName" :"updatedAt",
      "fieldType": "ZonedDateTime"
    },
    {
      "fieldId": 6,
      "fieldName" :"lastFreedAt",
      "fieldType": "ZonedDateTime"
    },
    {
      "fieldId": 7,
      "fieldName" :"lastLogedAt",
      "fieldType": "ZonedDateTime"
    },

    {
      "fieldId": 8,
      "fieldName": "status",
      "fieldType": "AccountStatus",
      "fieldValues": "NEW,ACTIVE,BLOCKED"
    }
  ],
  "changelogDate": "20160623182226",
  "dto": "mapstruct",
  "pagination": "pager",
  "service": "serviceImpl",
  "entityTableName": "tbl_account"
}
