{
    "relationships": [
        {
            "relationshipId": 1,
            "relationshipType": "many-to-one",
            "relationshipName": "account",
            "otherEntityName": "account",
            "otherEntityTableName": "tbl_account",
            "otherEntityField": "username"
        },
        {
            "relationshipId": 2,
            "relationshipType": "one-to-one",
            "relationshipName": "digitalCopy",
            "otherEntityName": "digitalCopy",
            "otherEntityTableName": "tbl_digital_copy",
            "ownerSide": false,
            "otherEntityRelationshipName": "voucher"
        }
    ],
    "fields": [
        {
            "fieldId": 1,
            "fieldName": "uid",
            "fieldType": "String"
        },
        {
            "fieldId": 2,
            "fieldName": "type",
            "fieldType": "VoucherType",
            "fieldValues": "BUY,FREE,REWARD"
        },
        {
            "fieldId": 3,
            "fieldName": "createdAt",
            "fieldType": "ZonedDateTime"
        },
        {
            "fieldId": 4,
            "fieldName": "updatedAt",
            "fieldType": "ZonedDateTime"
        },
        {
            "fieldId": 5,
            "fieldName": "status",
            "fieldType": "VoucherStatus",
            "fieldValues": "NEW,REDEEMED"
        }
    ],
  "changelogDate": "20160623182228",
  "dto": "mapstruct",
  "pagination": "pager",
  "service": "serviceImpl",
    "entityTableName": "tbl_voucher"
}
